<?xml version="1.0" standalone="no"?>
<!DOCTYPE svg PUBLIC "-//W3C//DTD SVG 20010904//EN"
 "http://www.w3.org/TR/2001/REC-SVG-20010904/DTD/svg10.dtd">
<svg version="1.0" xmlns="http://www.w3.org/2000/svg"
 width="70.000000pt" height="70.000000pt" viewBox="0 0 70.000000 70.000000"
 preserveAspectRatio="xMidYMid meet">
<metadata>
Created by potrace 1.11, written by Peter Selinger 2001-2013
</metadata>
<g transform="translate(0.000000,70.000000) scale(0.100000,-0.100000)"
fill="#000000" stroke="none">
<path d="M170 680 c0 -9 6 -22 12 -28 7 -7 13 -42 13 -85 1 -39 4 -79 8 -87 5
-10 -1 -19 -15 -26 -13 -7 -42 -22 -66 -34 -41 -21 -44 -22 -62 -5 -35 32 -79
-10 -46 -43 13 -14 20 -14 34 -4 9 6 28 16 42 22 14 5 38 16 53 25 27 14 30
14 73 -22 l44 -37 0 -72 c0 -59 4 -76 22 -100 33 -41 24 -98 -25 -151 -11 -13
-18 -26 -14 -29 11 -12 67 79 67 110 l0 31 20 -25 c38 -48 19 -1 -20 51 -38
50 -40 58 -40 121 l0 68 28 -5 c15 -4 53 -18 85 -32 48 -22 57 -31 57 -52 0
-14 11 -44 25 -66 14 -22 36 -63 50 -92 25 -51 55 -86 55 -65 0 6 -4 13 -9 17
-6 3 -20 27 -33 53 -13 26 -35 65 -50 86 -16 21 -28 49 -28 61 0 23 0 23 35 5
19 -10 67 -21 105 -25 39 -4 74 -13 81 -21 6 -8 16 -14 22 -14 5 0 2 9 -7 19
-12 13 -37 21 -84 25 -48 5 -88 18 -139 44 l-73 37 43 37 c28 25 52 37 72 38
17 0 48 11 70 25 49 30 31 34 -19 4 l-36 -21 0 35 c0 25 10 49 33 79 21 27 36
61 41 88 4 32 3 40 -4 30 -5 -8 -10 -26 -10 -40 0 -14 -14 -43 -31 -63 -21
-26 -33 -53 -37 -83 -4 -36 -8 -44 -26 -44 -11 -1 -41 -18 -65 -40 -35 -30
-48 -36 -65 -30 -12 5 -42 14 -68 20 -26 7 -59 23 -73 36 -26 24 -33 44 -15
44 6 0 24 10 40 21 28 22 54 22 150 2 19 -3 21 -2 11 5 -8 6 -40 13 -71 17
-53 6 -57 8 -53 30 5 21 23 35 63 48 8 3 4 6 -10 6 -30 0 -60 -20 -60 -41 0
-9 -9 -26 -20 -39 -20 -24 -20 -24 -36 -4 -12 15 -14 34 -10 80 5 50 2 65 -14
90 -12 18 -20 24 -20 15z"/>
</g>
</svg>
